%YAML 1.1
%TAG !u! tag:unity3d.com,2011:
--- !u!74 &7400000
AnimationClip:
  m_ObjectHideFlags: 0
  m_CorrespondingSourceObject: {fileID: 0}
  m_PrefabInternal: {fileID: 0}
  m_Name: BrownieANim
  serializedVersion: 6
  m_Legacy: 0
  m_Compressed: 0
  m_UseHighQualityCurve: 1
  m_RotationCurves: []
  m_CompressedRotationCurves: []
  m_EulerCurves: []
  m_PositionCurves: []
  m_ScaleCurves: []
  m_FloatCurves: []
  m_PPtrCurves:
  - curve:
    - time: 0
      value: {fileID: 21300000, guid: c58027899022cf84d8623c27329b887a, type: 3}
    - time: 0.083333336
      value: {fileID: 21300000, guid: 62240cb381d33194ab9e7d4081f7143a, type: 3}
    - time: 0.16666667
      value: {fileID: 21300000, guid: d44b68d0253a4ce4783ab6af38106735, type: 3}
    - time: 0.25
      value: {fileID: 21300000, guid: 17b059e1b2c238b4a92798258b459b6c, type: 3}
    - time: 0.33333334
      value: {fileID: 21300000, guid: b6b1c943c5779dc4bb37bba29507259d, type: 3}
    - time: 0.41666666
      value: {fileID: 21300000, guid: b31747d795a27ff4a83279d7efc7672f, type: 3}
    - time: 0.5
      value: {fileID: 21300000, guid: d35bbc5e9270fe645840601cd3626c71, type: 3}
    - time: 0.5833333
      value: {fileID: 21300000, guid: 44ae8a0bcb4264340840b1147fe8d648, type: 3}
    attribute: m_Sprite
    path: 
    classID: 212
    script: {fileID: 0}
  m_SampleRate: 12
  m_WrapMode: 0
  m_Bounds:
    m_Center: {x: 0, y: 0, z: 0}
    m_Extent: {x: 0, y: 0, z: 0}
  m_ClipBindingConstant:
    genericBindings:
    - serializedVersion: 2
      path: 0
      attribute: 0
      script: {fileID: 0}
      typeID: 212
      customType: 23
      isPPtrCurve: 1
    pptrCurveMapping:
    - {fileID: 21300000, guid: c58027899022cf84d8623c27329b887a, type: 3}
    - {fileID: 21300000, guid: 62240cb381d33194ab9e7d4081f7143a, type: 3}
    - {fileID: 21300000, guid: d44b68d0253a4ce4783ab6af38106735, type: 3}
    - {fileID: 21300000, guid: 17b059e1b2c238b4a92798258b459b6c, type: 3}
    - {fileID: 21300000, guid: b6b1c943c5779dc4bb37bba29507259d, type: 3}
    - {fileID: 21300000, guid: b31747d795a27ff4a83279d7efc7672f, type: 3}
    - {fileID: 21300000, guid: d35bbc5e9270fe645840601cd3626c71, type: 3}
    - {fileID: 21300000, guid: 44ae8a0bcb4264340840b1147fe8d648, type: 3}
  m_AnimationClipSettings:
    serializedVersion: 2
    m_AdditiveReferencePoseClip: {fileID: 0}
    m_AdditiveReferencePoseTime: 0
    m_StartTime: 0
    m_StopTime: 0.6666666
    m_OrientationOffsetY: 0
    m_Level: 0
    m_CycleOffset: 0
    m_HasAdditiveReferencePose: 0
    m_LoopTime: 1
    m_LoopBlend: 0
    m_LoopBlendOrientation: 0
    m_LoopBlendPositionY: 0
    m_LoopBlendPositionXZ: 0
    m_KeepOriginalOrientation: 0
    m_KeepOriginalPositionY: 1
    m_KeepOriginalPositionXZ: 0
    m_HeightFromFeet: 0
    m_Mirror: 0
  m_EditorCurves: []
  m_EulerEditorCurves: []
  m_HasGenericRootTransform: 0
  m_HasMotionFloatCurves: 0
  m_GenerateMotionCurves: 0
  m_Events: []
