%YAML 1.1
%TAG !u! tag:unity3d.com,2011:
--- !u!221 &22100000
AnimatorOverrideController:
  m_ObjectHideFlags: 0
  m_CorrespondingSourceObject: {fileID: 0}
  m_PrefabInternal: {fileID: 0}
  m_Name: DragonAOAbstract
  m_Controller: {fileID: 9100000, guid: d45a7e79702d97d40943dbb5ef57c9b5, type: 2}
  m_Clips:
  - m_OriginalClip: {fileID: 7400000, guid: bc6b60367cf005646bdd9ead85fcfb4f, type: 2}
    m_OverrideClip: {fileID: 7400000, guid: a1bf1bfe0ecfe0e4ebedeca2317c4f65, type: 2}
