%YAML 1.1
%TAG !u! tag:unity3d.com,2011:
--- !u!114 &11400000
MonoBehaviour:
  m_ObjectHideFlags: 0
  m_CorrespondingSourceObject: {fileID: 0}
  m_PrefabInternal: {fileID: 0}
  m_GameObject: {fileID: 0}
  m_Enabled: 1
  m_EditorHideFlags: 0
  m_Script: {fileID: 11500000, guid: 320e2c501bc2fe64f8da0e3398e6ca93, type: 3}
  m_Name: WinTexts
  m_EditorClassIdentifier: 
  texts:
  - Super!
  - Great!
  - Good!
  - Good Job!
  - Awesome!
  - Nice!
  - Bravo!
  - Master!
