%YAML 1.1
%TAG !u! tag:unity3d.com,2011:
--- !u!1045 &1
EditorBuildSettings:
  m_ObjectHideFlags: 0
  serializedVersion: 2
  m_Scenes:
  - enabled: 1
    path: Assets/CrazyRunScene.unity
    guid: 16bf4dc20eae99c4c9ea76b6a0fc0f37
  m_configObjects: {}
