%YAML 1.1
%TAG !u! tag:unity3d.com,2011:
--- !u!114 &11400000
MonoBehaviour:
  m_ObjectHideFlags: 0
  m_CorrespondingSourceObject: {fileID: 0}
  m_PrefabInternal: {fileID: 0}
  m_GameObject: {fileID: 0}
  m_Enabled: 1
  m_EditorHideFlags: 0
  m_Script: {fileID: 11500000, guid: 3ff3c2853f896d4489bcdd6c8cfae71c, type: 3}
  m_Name: Bg10
  m_EditorClassIdentifier: 
  backgroundTextures:
  - {fileID: 2800000, guid: b4d5c4d6a00395f41a3b1650bd904751, type: 3}
  - {fileID: 2800000, guid: 3c0239cdc5a50ae4e81d1fb9787dcf36, type: 3}
  - {fileID: 2800000, guid: d59e66f2606e7d641a2f5aa8e67c0989, type: 3}
  - {fileID: 2800000, guid: aa940724c5248a6418b5a151ea90e62a, type: 3}
  - {fileID: 2800000, guid: 21487db1807740b45a90f42bb81334a7, type: 3}
  - {fileID: 2800000, guid: cafbd463eb00fd24e848567663399930, type: 3}
