%YAML 1.1
%TAG !u! tag:unity3d.com,2011:
--- !u!114 &11400000
MonoBehaviour:
  m_ObjectHideFlags: 0
  m_CorrespondingSourceObject: {fileID: 0}
  m_PrefabInternal: {fileID: 0}
  m_GameObject: {fileID: 0}
  m_Enabled: 1
  m_EditorHideFlags: 0
  m_Script: {fileID: 11500000, guid: 3ff3c2853f896d4489bcdd6c8cfae71c, type: 3}
  m_Name: Bg3
  m_EditorClassIdentifier: 
  backgroundTextures:
  - {fileID: 2800000, guid: 4ba19268e5070c94ea8d9a6a60b69cc4, type: 3}
  - {fileID: 2800000, guid: b2e48029bf9601b4b85d42eb933beb28, type: 3}
  - {fileID: 2800000, guid: 812a8eb109e1d784a8c36322e3f49fea, type: 3}
  - {fileID: 2800000, guid: 969a1b4b98490124b9750583c19e2205, type: 3}
  - {fileID: 2800000, guid: 5b44affc2adc991439ea9bbdc262889e, type: 3}
  - {fileID: 2800000, guid: 6c210d0f17230ba4294b02041eca7d0b, type: 3}
