%YAML 1.1
%TAG !u! tag:unity3d.com,2011:
--- !u!114 &11400000
MonoBehaviour:
  m_ObjectHideFlags: 0
  m_CorrespondingSourceObject: {fileID: 0}
  m_PrefabInternal: {fileID: 0}
  m_GameObject: {fileID: 0}
  m_Enabled: 1
  m_EditorHideFlags: 0
  m_Script: {fileID: 11500000, guid: 3ff3c2853f896d4489bcdd6c8cfae71c, type: 3}
  m_Name: Bg5
  m_EditorClassIdentifier: 
  backgroundTextures:
  - {fileID: 2800000, guid: cbc0dafe2b4810a49afc35a51b3bb315, type: 3}
  - {fileID: 2800000, guid: a0f8134d0d0baaf408cc5986b8a997a9, type: 3}
  - {fileID: 2800000, guid: c7c766191c3333d479f6c5d5d52bc0c2, type: 3}
  - {fileID: 2800000, guid: 61c4fd0d19176f24c8476a80992630e9, type: 3}
  - {fileID: 2800000, guid: 59862e4ebae78374588dcae00c78f4d3, type: 3}
  - {fileID: 2800000, guid: e624e56b502b5754c9ecacfe9a834c53, type: 3}
