%YAML 1.1
%TAG !u! tag:unity3d.com,2011:
--- !u!114 &11400000
MonoBehaviour:
  m_ObjectHideFlags: 0
  m_CorrespondingSourceObject: {fileID: 0}
  m_PrefabInternal: {fileID: 0}
  m_GameObject: {fileID: 0}
  m_Enabled: 1
  m_EditorHideFlags: 0
  m_Script: {fileID: 11500000, guid: 3ff3c2853f896d4489bcdd6c8cfae71c, type: 3}
  m_Name: Bg8
  m_EditorClassIdentifier: 
  backgroundTextures:
  - {fileID: 2800000, guid: 402e2e51bc97c8b4686b83a4473a0801, type: 3}
  - {fileID: 2800000, guid: 540c5a8b7b76b2c4480f6fb1e1b0d08f, type: 3}
  - {fileID: 2800000, guid: 6705286eba51c6a49b884b64e9c13439, type: 3}
  - {fileID: 2800000, guid: 814d3ecc23eadd244b1dd5ccfda1dcb1, type: 3}
  - {fileID: 2800000, guid: 756f0a3a40c71ca45a898c47e0725c03, type: 3}
  - {fileID: 2800000, guid: 8d0dd1c227a2bf9498d0acf0c7c8c4aa, type: 3}
