%YAML 1.1
%TAG !u! tag:unity3d.com,2011:
--- !u!114 &11400000
MonoBehaviour:
  m_ObjectHideFlags: 0
  m_CorrespondingSourceObject: {fileID: 0}
  m_PrefabInternal: {fileID: 0}
  m_GameObject: {fileID: 0}
  m_Enabled: 1
  m_EditorHideFlags: 0
  m_Script: {fileID: 11500000, guid: 3ff3c2853f896d4489bcdd6c8cfae71c, type: 3}
  m_Name: Bg9
  m_EditorClassIdentifier: 
  backgroundTextures:
  - {fileID: 2800000, guid: 04f8cbc6a8a97db46ad17945d996df8c, type: 3}
  - {fileID: 2800000, guid: 0f9407953e0a1764e86fd64e472473ef, type: 3}
  - {fileID: 2800000, guid: fe4d3d269afb37646ab188c2870cab25, type: 3}
  - {fileID: 2800000, guid: 36d890aeed7a21b4eac79cc17407d742, type: 3}
  - {fileID: 2800000, guid: 8863d31e43420f842a68b73778cea1d2, type: 3}
  - {fileID: 2800000, guid: 21adcff4d1f0d99498ba765082e72e90, type: 3}
